<html>
<body>
<br/>
<font color="#FF4500"><b>= = = = = = = = = = = = = = = = = = = = = = = = = = = =</b></font><br>
<font color="#0000CD"><b>★ T ☆ E ☆ L ☆ E ☆ T ☆ U ☆ B ☆ B ☆ I ☆ N ☆ S ★</b></font><br>
<font color="#FF4500"><b>= = = = = = = = = = = = = = = = = = = = = = = = = = = =</b></font><br>
<br>
<font color="#FF1493"><b>Please Follow the Rules Carefully to Avoid Account Blocked</b></font><br>
</body>
</html>